<svg 
    xmlns="http://www.w3.org/2000/svg" viewBox="0 0 23 14.897">
    <rect x="11.052" y="-4.051" width="0.896" height="23" transform="translate(18.949 -4.051) rotate(90)"/>
    <rect x="11.052" y="-11.052" width="0.896" height="23" transform="translate(11.948 -11.052) rotate(90)"/>
    <rect x="11.052" y="2.949" width="0.896" height="23" transform="translate(25.949 2.949) rotate(90)"/>
</svg>